{
    "q1": {
        "type": "blank", 
        "question": "\n<p>\nWhen a program is executed, it has access to three special files: ____ (1),\n____ (2), and ____ (3).  The first is connected to the keyboard, while the second\nand third are attached to the screen or terminal.\n</p>\n\n<p>To redirect the contents of a file into a command such as\n<code>md5sum</code>, we can do:</p>\n\n<pre>\n$ md5sum ____ file      # (4)\n</pre>\n\n<p>To redirect the output of a command such as <code>date</code> to a file, we\ncan do:</p>\n\n<pre>\n$ date ____ file        # (5)\n</pre>\n\n<p>To append the output of a command such as <code>uname</code> to a file, we\ncan do: </p>\n\n<pre>\n$ uname -a ____ file    # (6)\n</pre>\n\n<p>To redirect only the error messages of a command such as <code>find</code>\nto a file, we can do:</p>\n\n<pre>\n$ find /etc ____ file   # (7)\n</pre>\n\n<p>To redirect both the output and error messages of a command such as\n<code>du</code>, we can do:</p>\n\n<pre>\n$ du /etc ____ file     # (8)\n</pre>\n\n<p>To redirect the output of a command such as <code>ls</code> to the input of\nanother command such as <code>grep</code>, we can do:</p>\n\n<pre>\n$ ls /etc ____ grep host # (9)\n</pre>\n"
    }, 
    "q3": {
        "type": "blank", 
        "question": "\n<p>Two useful features in a typical Unix shell are pathname expansion and\nbrace expansion.  Given the following output of <code>ls</code>:</p>\n\n<pre>\n2002-01  2002-07  2003-01  2003-07  2004-01  2004-07  2005-01  2005-07  2006-01  2006-07\n2002-02  2002-08  2003-02  2003-08  2004-02  2004-08  2005-02  2005-08  2006-02  2006-08\n2002-03  2002-09  2003-03  2003-09  2004-03  2004-09  2005-03  2005-09  2006-03  2006-09\n2002-04  2002-10  2003-04  2003-10  2004-04  2004-10  2005-04  2005-10  2006-04  2006-10\n2002-05  2002-11  2003-05  2003-11  2004-05  2004-11  2005-05  2005-11  2006-05  2006-11\n2002-06  2002-12  2003-06  2003-12  2004-06  2004-12  2005-06  2005-12  2006-06  2006-12\n</pre>\n\n<p><b>Note:</b> All file names are in the format <code>YEAR-MONTH</code>.</p>\n\n<p>Using <code>bash</code>'s expansion syntax, complete the following prompts.</p>\n\n<p>To list all the files from 2002, we could do:</p>\n\n<pre>\n$ ls ____ # (1)\n2002-01 2002-02 2002-03 2002-04 2002-05 2002-06 2002-07 2002-08 2002-09 2002-10 2002-11 2002-12\n</pre>\n\n<p>To list all the files from the month of December, we could do:</p>\n\n<pre>\n$ ls ____ # (2)\n2002-12 2003-12 2004-12 2005-12 2006-12\n</pre>\n\n\n<p>To list all the files from the month of January to June, we could do:</p>\n\n<pre>\n$ ls ____ # (3)\n2002-01  2002-04  2003-01  2003-04  2004-01  2004-04  2005-01  2005-04  2006-01  2006-04\n2002-02  2002-05  2003-02  2003-05  2004-02  2004-05  2005-02  2005-05  2006-02  2006-05\n2002-03  2002-06  2003-03  2003-06  2004-03  2004-06  2005-03  2005-06  2006-03  2006-06\n</pre>\n\n<p>To list all the files with an even year and odd month, we could do:</p>\n\n<pre>\n$ ls ____ # (4)\n2002-01  2002-05  2002-09  2004-01  2004-05  2004-09  2006-01  2006-05  2006-09\n2002-03  2002-07  2002-11  2004-03  2004-07  2004-11  2006-03  2006-07  2006-11\n</pre>\n"
    }, 
    "q2": {
        "type": "single", 
        "question": "\n<p>Are the following two pipelines equivalent?</p>\n\n<pre>\n$ du -h /etc 2> /dev/null | sort -h > output.txt\n</pre>\n\n<pre>\n$ du -h /etc | sort -h > output.txt 2> /dev/null\n</pre>\n", 
        "responses": {
            "true": "Yes, the pipelines have the same behavior and produce the same output.", 
            "no_error": "No, the first pipeline discards the error messages of the <code>du</code>, while the second pipeline discards the error messages of <code>sort</code>.", 
            "no_store": "No, the first pipeline redirects the output of <code>du</code> to a file and then <code>sorts</code> the file, while the second pipeline pipes the output of <code>du</code> into <code>sort</code> and then stores it into two files.", 
            "no_output": "No, the first pipeline discards the output of <code>du</code> before <code>sorting</code>, while the second pipeline discards the output of the whole pipeline."
        }
    }, 
    "q5": {
        "type": "multiple", 
        "question": "\n<p>Given the following output of <code>ls -l</code>:</p>\n\n<pre>\n-rw------- 1 pbui notre-dame 0 Jan 18 07:19 Beastie\n-rwxr-xr-x 1 pbui notre-dame 0 Jan 18 07:18 Huxley\n-rwxr-x--- 1 pbui notre-dame 0 Jan 18 07:18 Tux\n</pre>\n\n<p>Which files are executable by the owner?</p>\n", 
        "responses": {
            "beastie": "Beastie", 
            "tux": "Tux", 
            "huxley": "Huxley"
        }
    }, 
    "q4": {
        "type": "blank", 
        "question": "\n<p>Two other important features of a typical Unix shell are variables (ie.\nparameter expansion) and command substitution.  Using these features,\ncomplete the following prompts:</p>\n\n<p>To print all the environment variables in the shell, we could do:</p>\n\n<pre>\n$ ____          # (1)\n</pre>\n\n<p>To print the value of the <code>HOME</code> variable, we could do:</p>\n\n<pre>\n$ echo ____     # (2)\n</pre>\n\n<p>To set the value of the <code>SHELL</code> variable to\n<code>/bin/bash</code>, we could do:</p>\n\n<pre>\n$ ____          # (3)\n</pre>\n\n<p>To compute the <code>md5sum</code> of the <code>ls</code> command\nwhile also looking up its location, we could do:</p>\n\n<pre>\n$ md5sum ____   # (4)\n</pre>\n"
    }, 
    "q7": {
        "type": "multiple", 
        "question": "\n<p>Given the directory listing in question 5, which files are not writable\nby the world?</p>\n", 
        "responses": {
            "beastie": "Beastie", 
            "tux": "Tux", 
            "huxley": "Huxley"
        }
    }, 
    "q6": {
        "type": "multiple", 
        "question": "\n<p>Given the directory listing in question 5, which files are readable by\nmembers of the <code>notre-dame</code> group?</p>\n", 
        "responses": {
            "beastie": "Beastie", 
            "tux": "Tux", 
            "huxley": "Huxley"
        }
    }, 
    "q9": {
        "type": "blank", 
        "question": "<p>Suppose you run the <code>bc</code> command</b>\n\n<ol>\n\n<li>We could suspend the process with the keystroke: CTRL-____.</li>\n\n<li>We could resume the suspended process with the command: ____.</li>\n\n<li>We could indicate the end of input with the keystroke: CTRL-____.</li>\n\n<li>If the <code>bc</code> process was still running, we could terminate\nthe process using the keystroke: CTRL-____.</li>\n\n<li>If the <code>bc</code> process was still running, and we knew its PID,\nwe could terminate the process using the command: ____ PID.</li>\n\n<li>If the <code>bc</code> process was still running, and we did not know\nits PID, we could terminate the process using the command: ____ bc.</li>\n"
    }, 
    "q8": {
        "type": "blank", 
        "question": "\n<p>Given the directory listing in question 5:</p> \n\n<ol>\n\n<li>What is the octal code for <code>Beastie</code>'s permissions? ____</li>\n<li>What is the octal code for <code>Huxley</code>'s permissions? ____</li>\n<li>What is the octal code for <code>Tux</code>'s permissions? ____</li>\n\n</ol>\n"
    }
}
